{
  "version":"0.0.1",
  "wsPort":18002,
  "wsHost":"localhost",
  "grpcServers":{
    "serv_graphql":{
        "name":"server_1_graphql",
        "host":"localhost",
        "port":"15001"
      },
    "serv_push":{
      "name":"server_1_push",
      "host":"localhost",
      "port":"15002"
    }

  }
}